Combined sets of diagrams for -gc->
Computed Dependencies are: 
	-gc-> requires 
Forking diagram: <-SR,a- . -gc-> ~~> -gc-> . <-SR,a-
Forking diagram: <-SR,cp- . -gc-> ~~> -gc-> . <-SR,cp-
Forking diagram: <-SR,case- . -gc-> ~~> -gc-> . <-SR,case-
Forking diagram: <-SR,lll- . -gc-> ~~> -gc-> . <-SR,lll-
Forking diagram: <-SR,a- . -gc-> ~~> <-SR,a-
Forking diagram: <-SR,case- . -gc-> ~~> <-SR,case-
Forking diagram: <-ANSWER- . -gc-> ~~> <-ANSWER-

Combined sets of diagrams for -ucp->, -gc->
Computed Dependencies are: 
	-ucp-> requires -gc->
	-gc-> requires 
Forking diagram: <-SR,a- . -ucp-> ~~> -ucp-> . <-SR,a-
Forking diagram: <-SR,case- . -ucp-> ~~> -ucp-> . <-SR,case-
Forking diagram: <-SR,lll- . -ucp-> ~~> -ucp-> . <-SR,lll-
Forking diagram: <-SR,cp- . -ucp-> ~~> -ucp-> . <-SR,cp-
Forking diagram: <-SR,a- . -ucp-> ~~> <-SR,a-
Forking diagram: <-SR,case- . -ucp-> ~~> <-SR,case-
Forking diagram: <-SR,a- . -ucp-> ~~> -gc-> . <-SR,a-
Forking diagram: <-SR,case- . -ucp-> ~~> -gc-> . <-SR,case-
Forking diagram: <-SR,cp- . -ucp-> ~~> -gc->
Forking diagram: <-SR,cp- . -ucp-> ~~> -gc-> . <-SR,cp-
Forking diagram: <-SR,lll- . -ucp-> ~~> -ucp-> . <-SR,lll,+-
Forking diagram: <-SR,case- . -ucp-> ~~> -gc-> . -ucp,+-> . <-SR,case-
Forking diagram: <-SR,lll- . -ucp-> ~~> -ucp->
Forking diagram: <-ANSWER- . -ucp-> ~~> <-ANSWER-
Forking diagram: <-SR,a- . -gc-> ~~> -gc-> . <-SR,a-
Forking diagram: <-SR,cp- . -gc-> ~~> -gc-> . <-SR,cp-
Forking diagram: <-SR,case- . -gc-> ~~> -gc-> . <-SR,case-
Forking diagram: <-SR,lll- . -gc-> ~~> -gc-> . <-SR,lll-
Forking diagram: <-SR,a- . -gc-> ~~> <-SR,a-
Forking diagram: <-SR,case- . -gc-> ~~> <-SR,case-
Forking diagram: <-ANSWER- . -gc-> ~~> <-ANSWER-


Starting automated induction for transformation "gc"
... write TRS to "outproblr/induct/LR-FORK.ug.ed.short.out.gc.trs"
... prove termination ...
... result of termination proof: YES
... preparing proof output
... wrote termination proof to "outproblr/induct/LR-FORK.ug.ed.short.out.gc.trs.proof.html"
... starting certification of termination proof using CeTA
... answer of CeTA: 
...   CERTIFIED <trsTerminationProof>

... induction for transformation "gc" done. QED

Starting automated induction for transformation "ucp"
... write TRS to "outproblr/induct/LR-FORK.ug.ed.short.out.ucp.trs"
... prove termination ...
... result of termination proof: YES
... preparing proof output
... wrote termination proof to "outproblr/induct/LR-FORK.ug.ed.short.out.ucp.trs.proof.html"
... starting certification of termination proof using CeTA
... answer of CeTA: 
...   CERTIFIED <trsTerminationProof>

... induction for transformation "ucp" done. QED
