-- =================================================================================================
-- unions for standard reductions
-- =================================================================================================

-- =====================================================
-- lbeta-reductions

union (SR,lbeta,0)          = { (SR,lbeta,1), (SR,lbeta,2), (SR,lbeta,3) }

-- ======================================================
-- prob-reductions
union (SR,probl,0)  = { (SR,probl,1), (SR,probl,2), (SR,probl,3) }
union (SR,probr,0)  = { (SR,probr,1), (SR,probr,2), (SR,probr,3) }



-- =====================================================
-- cp-reductions
--
union (SR,cp-in,0)          = { (SR,cp-in,1)}
union (SR,cp-e,0)           = { (SR,cp-e,1)}
union (SR,cp,0)             = { (SR,cp-in,0), (SR,cp-e,0) }

-- =====================================================


-- =====================================================
-- lll-reductions
--

union (SR,llet-e,0)         = { (SR,llet-e,1),(SR,llet-e,2) }
union (SR,llet,0)           = { (SR,llet-in,1), (SR,llet-e,0) }
union (SR,lapp,0)           = { (SR,lapp,1), (SR,lapp,2), (SR,lapp,3) }
union (SR,lll,+,0)          = { (SR,lll,+,1),(SR,lll,+,2),(SR,lll,+,3) }




-- =====================================================
-- cpd

union (cpd,0)               = {(cpd-in,1), (cpd-e,1), (cpd-e,2) }

-- =====================================================
-- cpS
union (cpS,0)               = {(cpS-in,1), (cpS-e,1), (cpS-e,2) }


-- =====================================================
-- lll
union (llet,0)              = { (llet-in,1), (llet-e,1) } 

-- =====================================================
-- ucp 
union (ucp,0)               = { (ucp,1), (ucp,2), (ucp,3)}

-- =====================================================
-- gc 
union (gc,0)                = { (gc,1), (gc,2) }

-- =====================================================
-- cpx
union (cpx-e,0)             = { (cpx-e,1), (cpx-e,2) }
union (cpx,0)               = { (cpx-e,0), (cpx-in,1) }




-- to ensure termination of the (lll)-diagrams we cannot use the union
-- of (lll), thus we expand (SR,lll)-steps to all possibilites.
-- The following rules will add special diagrams for this:
-- --SR,lll--> ~~~> SR,lapp
-- --SR,lll--> ~~~> SR,llet
-- This is necessary since we cannot omit the special (SR,lll,+) reductions
-- and they cannot easily represented by (SR,lapp),... reductions

expand (SR,lll,0) = {(SR,lapp,0),(SR,llet,0)}
